Modelos de regressão para desfecho escalar e preditores funcionais - soluções para problema da medicina obstétrica
…
2. Linhas e colunas vazias:

```r
b_tcp %>>%
  remove_empty("rows")
```

```
# A tibble: 997 x 21
      id indic_aval ig_aval medida_colo num_contra ovulos corion    im tescola
   <dbl>      <dbl>   <dbl>       <dbl>      <dbl>  <dbl>  <dbl> <dbl>   <dbl>
 1 17582          1    26.9        NA            3      1      2    35      11
 2 17582          2    29.9        NA            0      1      2    35      11
 3 17582          3    32.9        NA            3      1      2    35      11
 4 17677          1    28.1        NA            0      1      1    26      11
 5 17677          2    31.1        NA           15      1      1    26      11
 6 17805          1    26.9        NA            0      1      2    25      11
 7 17805          2    29.9        NA            2      1      2    25      11
 8 17805          3    32.9        NA            4      1      2    25      11
 9 18054          1    26.9        NA           11      2      2    29      10
10 18054          2    29.9        10.4         10      2      2    29      10
# ... with 987 more rows, and 12 more variables: cor_branco <dbl>,
#   peso_pre <dbl>, alt <dbl>, imc <dbl>, gesta <dbl>, para <dbl>, a <dbl>,
#   ind_ap <dbl>, hv_tabagismo <dbl>, hv_alcool <dbl>, hv_drogas <dbl>,
#   igp_parto <dbl>
```

```r
b_tcp %>>%
  remove_empty("cols")
```

```
# A tibble: 997 x 21
      id indic_aval ig_aval medida_colo num_contra ovulos corion    im tescola
   <dbl>      <dbl>   <dbl>       <dbl>      <dbl>  <dbl>  <dbl> <dbl>   <dbl>
 1 17582          1    26.9        NA            3      1      2    35      11
 2 17582          2    29.9        NA            0      1      2    35      11
 3 17582          3    32.9        NA            3      1      2    35      11
 4 17677          1    28.1        NA            0      1      1    26      11
 5 17677          2    31.1        NA           15      1      1    26      11
 6 17805          1    26.9        NA            0      1      2    25      11
 7 17805          2    29.9        NA            2      1      2    25      11
 8 17805          3    32.9        NA            4      1      2    25      11
 9 18054          1    26.9        NA           11      2      2    29      10
10 18054          2    29.9        10.4         10      2      2    29      10
# ... with 987 more rows, and 12 more variables: cor_branco <dbl>,
#   peso_pre <dbl>, alt <dbl>, imc <dbl>, gesta <dbl>, para <dbl>, a <dbl>,
#   ind_ap <dbl>, hv_tabagismo <dbl>, hv_alcool <dbl>, hv_drogas <dbl>,
#   igp_parto <dbl>
```

Nenhuma linha ou coluna vazia identificada.

3. Identificação de casos duplicados:

```r
b_tcp %>>%
  get_dupes(id)
```

```
# A tibble: 964 x 22
      id dupe_count indic_aval ig_aval medida_colo num_contra ovulos corion
   <dbl>      <int>      <dbl>   <dbl>       <dbl>      <dbl>  <dbl>  <dbl>
 1 17582          3          1    26.9        NA            3      1      2
 2 17582          3          2    29.9        NA            0      1      2
 3 17582          3          3    32.9        NA            3      1      2
 4 17677          2          1    28.1        NA            0      1      1
 5 17677          2          2    31.1        NA           15      1      1
 6 17805          3          1    26.9        NA            0      1      2
 7 17805          3          2    29.9        NA            2      1      2
 8 17805          3          3    32.9        NA            4      1      2
 9 18054          2          1    26.9        NA           11      2      2
10 18054          2          2    29.9        10.4         10      2      2
# ... with 954 more rows, and 14 more variables: im <dbl>, tescola <dbl>,
#   cor_branco <dbl>, peso_pre <dbl>, alt <dbl>, imc <dbl>, gesta <dbl>,
#   para <dbl>, a <dbl>, ind_ap <dbl>, hv_tabagismo <dbl>, hv_alcool <dbl>,
#   hv_drogas <dbl>, igp_parto <dbl>
```
…
